Nike Brand Intelligence
…
# Filter out numbers and non-alphabetic tokens
tidy_words_clean <- tidy_words_clean %>%
  filter(str_detect(word, "[a-z]")) %>%
  filter(!str_detect(word, "^\\d+$"))

# Stemming
tidy_words_clean <- tidy_words_clean %>%
  mutate(word_stem = SnowballC::wordStem(word))

print(head(tidy_words_clean, 25))

## # A tibble: 25 × 3
##    doc_id word       word_stem
##     <int> <chr>      <chr>    
##  1      1 nike       nike     
##  2      1 killshot   killshot 
##  3      1 lot        lot      
##  4      1 situations situat   
##  5      2 jordan     jordan   
##  6      2 low        low      
##  7      2 og         og       
##  8      2 quality    qualiti  
##  9      3 jordan     jordan   
## 10      3 low        low      
## # ℹ 15 more rows
…
Word Frequency Analysis

# load libraries
library(topicmodels)
library(igraph)
library(ggraph)
library(ggplot2)

# Count word frequencies
word_freq <- tidy_words_clean %>%
  count(word, sort = TRUE)

print(head(word_freq, 30))

## # A tibble: 30 × 2
##    word            n
##    <chr>       <int>
##  1 nike          186
##  2 adidas         95
##  3 shoes          75
##  4 comfortable    48
##  5 shoe           48
##  6 sneakers       36
##  7 pair           32
##  8 air            30
##  9 sneaker        28
## 10 quality        26
## # ℹ 20 more rows
…
# Remove stop words from both positions
bigrams_filtered <- bigrams_separated %>%
  filter(!is.na(word1), !is.na(word2)) %>%
  filter(!word1 %in% stop_words$word,
         !word2 %in% stop_words$word) %>%
  filter(str_detect(word1, "[a-z]"),
         str_detect(word2, "[a-z]"))

# Count bigram frequencies
bigram_counts <- bigrams_filtered %>%
  count(word1, word2, sort = TRUE)

print(head(bigram_counts, 30))

## # A tibble: 30 × 3
##    word1       word2           n
##    <chr>       <chr>       <int>
##  1 nike        sneakers       27
##  2 nike        air            14
##  3 air         max             7
##  4 nike        shoes           6
##  5 nike        vomero          6
##  6 running     shoes           6
##  7 super       comfortable     5
##  8 wide        feet            5
##  9 air         force           4
## 10 comfortable shoe            4
## # ℹ 20 more rows
…
set.seed(1234)
lda_model <- LDA(lda_dtm, k = k_topics, control = list(seed = 1234))

lda_topics <- tidy(lda_model, matrix = "beta")

top_terms <- lda_topics %>%
  group_by(topic) %>%
  slice_max(beta, n = 10) %>%
  ungroup() %>%
  arrange(topic, desc(beta))

print(top_terms)

## # A tibble: 50 × 3
##    topic term          beta
##    <int> <chr>        <dbl>
##  1     1 nike        0.102 
##  2     1 comfortable 0.0843
##  3     1 shoes       0.0773
##  4     1 sneakers    0.0526
##  5     1 sneaker     0.0525
##  6     1 shoe        0.0465
##  7     1 bought      0.0189
##  8     1 adidas      0.0172
##  9     1 foot        0.0150
## 10     1 air         0.0144
## # ℹ 40 more rows
…
9. TF-IDF by Product Line

product_words <- tidy_words_clean %>%
  left_join(product_mentions %>% select(doc_id, product_line), by = "doc_id") %>%
  filter(product_line != "General Nike") %>%
  count(product_line, word, sort = TRUE)

product_tfidf <- product_words %>%
  bind_tf_idf(term = word, document = product_line, n = n) %>%
  arrange(desc(tf_idf))

print(head(product_tfidf, 30))

## # A tibble: 30 × 6
##    product_line word           n    tf   idf tf_idf
##    <chr>        <chr>      <int> <dbl> <dbl>  <dbl>
##  1 Vapormax     vapormax       2 0.286  2.40  0.685
##  2 Killshot     killshot       1 0.25   2.40  0.599
##  3 Killshot     lot            1 0.25   2.40  0.599
##  4 Killshot     situations     1 0.25   2.40  0.599
##  5 Huarache     cushioning     1 0.2    2.40  0.480
##  6 Huarache     huarache       1 0.2    2.40  0.480
##  7 Huarache     support        1 0.2    2.40  0.480
##  8 Vomero       vomero        21 0.178  2.40  0.427
##  9 Jordan       jordan        11 0.177  2.40  0.425
## 10 Vapormax     ruined         1 0.143  2.40  0.343
## # ℹ 20 more rows
…
